<?xml version="1.0" encoding="iso-8859-1"?>
<svg xmlns="http://www.w3.org/2000/svg" xmlns:xlink="http://www.w3.org/1999/xlink" version="1.1" id="Capa_1" x="0px" y="0px" viewBox="0 0 468 468" >
<g>
	<g>
		<polygon points="20,20 110,20 110,0 0,0 0,110 20,110" fill="#D80027"/>
		<polygon points="468,0 358,0 358,20 447,20 447,110 468,110" fill="#D80027"/>
		<polygon points="0,468 110,468 110,448 20,448 20,358 0,358" fill="#D80027"/>
		<polygon points="448,448 358,448 358,468 468,468 468,358 447,358" fill="#D80027"/>
		<circle cx="234.038" cy="234.038" r="30" fill="#388E3C"/>
	</g>
</g>
</svg>
